<?xml version="1.0" encoding="UTF-8" standalone="no"?>
<!DOCTYPE svg PUBLIC "-//W3C//DTD SVG 1.1//EN"
 "http://www.w3.org/Graphics/SVG/1.1/DTD/svg11.dtd">
<!-- Generated by graphviz version 2.36.0 (20140111.2315)
 -->
<!-- Title: controllers_diagram Pages: 1 -->
<svg width="481pt" height="272pt"
 viewBox="0.00 0.00 480.58 272.00" xmlns="http://www.w3.org/2000/svg" xmlns:xlink="http://www.w3.org/1999/xlink">
<g id="graph0" class="graph" transform="scale(1 1) rotate(0) translate(4 268)">
<title>controllers_diagram</title>
<polygon fill="none" stroke="none" points="-4,4 -4,-268 476.584,-268 476.584,4 -4,4"/>
<!-- _diagram_info -->
<g id="node1" class="node"><title>_diagram_info</title>
<text text-anchor="start" x="8" y="-123.6" font-family="Times,serif" font-size="13.00">Controllers diagram</text>
<text text-anchor="start" x="8" y="-109.6" font-family="Times,serif" font-size="13.00">Date: Apr 05 2017 &#45; 21:47</text>
<text text-anchor="start" x="8" y="-95.6" font-family="Times,serif" font-size="13.00">Migration version: 20170405214525</text>
<text text-anchor="start" x="8" y="-81.6" font-family="Times,serif" font-size="13.00">Generated by RailRoady 1.5.2</text>
<text text-anchor="start" x="8" y="-67.6" font-family="Times,serif" font-size="13.00">http://railroady.prestonlee.com</text>
</g>
<!-- AddressesController -->
<g id="node2" class="node"><title>AddressesController</title>
<ellipse fill="none" stroke="black" cx="298.591" cy="-186" rx="106.681" ry="18"/>
<text text-anchor="middle" x="298.591" y="-182.3" font-family="Times,serif" font-size="14.00">AddressesController</text>
</g>
<!-- ApplicationController -->
<g id="node3" class="node"><title>ApplicationController</title>
<ellipse fill="none" stroke="black" cx="243.79" cy="-18" rx="111.581" ry="18"/>
<text text-anchor="middle" x="243.79" y="-14.3" font-family="Times,serif" font-size="14.00">ApplicationController</text>
</g>
<!-- ClientsController -->
<g id="node4" class="node"><title>ClientsController</title>
<ellipse fill="none" stroke="black" cx="139.642" cy="-246" rx="91.784" ry="18"/>
<text text-anchor="middle" x="139.642" y="-242.3" font-family="Times,serif" font-size="14.00">ClientsController</text>
</g>
<!-- KindsController -->
<g id="node5" class="node"><title>KindsController</title>
<ellipse fill="none" stroke="black" cx="85.1424" cy="-186" rx="85.2851" ry="18"/>
<text text-anchor="middle" x="85.1424" y="-182.3" font-family="Times,serif" font-size="14.00">KindsController</text>
</g>
<!-- PartnersController -->
<g id="node6" class="node"><title>PartnersController</title>
<ellipse fill="none" stroke="black" cx="350.791" cy="-246" rx="98.5829" ry="18"/>
<text text-anchor="middle" x="350.791" y="-242.3" font-family="Times,serif" font-size="14.00">PartnersController</text>
</g>
<!-- PhonesController -->
<g id="node7" class="node"><title>PhonesController</title>
<ellipse fill="none" stroke="black" cx="380.292" cy="-78" rx="92.0841" ry="18"/>
<text text-anchor="middle" x="380.292" y="-74.3" font-family="Times,serif" font-size="14.00">PhonesController</text>
</g>
</g>
</svg>
